%YAML 1.1
%TAG !u! tag:unity3d.com,2011:
--- !u!78 &1
TagManager:
  serializedVersion: 2
  tags:
  - Obstacle
  - FinishLine
  layers:
  - Default
  - TransparentFX
  - Ignore Raycast
  - 
  - Water
  - UI
  - Ground
  - 
  - 
  - 
  - 
  - 
  - 
  - 
  - 
  - 
  - 
  - 
  - 
  - 
  - 
  - 
  - 
  - 
  - 
  - 
  - 
  - 
  - 
  - 
  - 
  - 
  m_SortingLayers:
  - name: Default
    uniqueID: 0
    locked: 0
  - name: BG
    uniqueID: 114772181
    locked: 0
  - name: Ground
    uniqueID: 616162723
    locked: 0
  - name: FinishLine
    uniqueID: 403361313
    locked: 0
  - name: Obstacles
    uniqueID: 2761093747
    locked: 0
  - name: Player
    uniqueID: 1011948483
    locked: 0
